{
  "owner": "fare",
  "repo": "gerbil-ethereum",
  "branch": "master",
  "private": false,
  "rev": "02270fa3734b0cbfcebbfc8a635496464ac25e0e",
  "sha256": "1spa6x3ibidfvwf74cy0jwizbd9h6j71744yw310b0687x216ay4"
}
