{
  "owner": "fare",
  "repo": "gerbil-poo",
  "branch": "master",
  "private": false,
  "rev": "5b2290ffb9f06fae13be6bb112cf6523af0286ef",
  "sha256": "1l0kdy122lb5f1639vdmm79yy1y8p5irfmpffm7q27lsz211s9h6"
}
